<?xml version="1.0" encoding="iso-8859-1"?>
<!-- Generator: Adobe Illustrator 16.0.4, SVG Export Plug-In . SVG Version: 6.00 Build 0)  -->
<!DOCTYPE svg PUBLIC "-//W3C//DTD SVG 1.1//EN" "http://www.w3.org/Graphics/SVG/1.1/DTD/svg11.dtd">
<svg version="1.1" id="Layer_1" xmlns="http://www.w3.org/2000/svg" xmlns:xlink="http://www.w3.org/1999/xlink" x="0px" y="0px"
	 width="80px" height="80px" viewBox="0 0 80 80" style="enable-background:new 0 0 80 80;" xml:space="preserve">
<path style="opacity:0.2;fill:#12100B;" d="M5.877,3.227c3.739-0.074,63.971-0.593,64.473,1.19
	c0.502,1.782,1.018,11.727,0.327,13.776c-0.69,2.048,4.329,14.947,6.387,57.057L5.786,75.242L5.877,3.227z"/>
<path style="opacity:0.3;fill:#12100B;" d="M65.908,75.14c-0.42-8.167-0.684-15.24-0.725-17.071
	c-0.097-4.174-0.585-32.832-2.874-38.687c-2.284-5.854,1.23-12.858-0.12-13.283C61.434,5.86,32.298,5.044,6.312,5.341
	C6.38,5.71,6.389,45.406,6.318,72.322"/>
<path style="fill:#FFFFFF;" d="M73.197,75.332c-0.344-7.333-0.944-13.219-0.982-14.907c-0.098-4.369-3.32-34.263-4.692-40.389
	c-1.434-6.4,0.689-13.582-0.688-14.026C66.007,5.742,33.513,4.187,5.739,4.845c0,0.449-0.037,41.959-0.085,70.479"/>
<g>
	<path style="opacity:0.1;fill:#12100B;" d="M5.749,74.251c4.31,0.575,9.153,0.801,10.776,0.656c4.872-0.433,6.132-2.086,6.64-3.091
		c-2.575-0.121-10.175-1.463-17.416-2.967"/>
	<path style="opacity:0.1;fill:#12100B;" d="M5.819,43.973c2.534,0.014,5.235-0.032,6.291-0.143c6.664-0.717,7.022-4.3,6.12-4.086
		c-0.974,0.229-6.3,0.155-12.411-0.009"/>
	<path style="opacity:0.1;fill:#12100B;" d="M5.749,58.282c6.636,1.372,13.332,2.399,15.369,2.493
		c5.633,0.256,6.386-2.708,5.605-2.643c-1.342,0.108-12.233-1.999-20.974-3.845"/>
	<path style="opacity:0.1;fill:#12100B;" d="M5.834,30.832c25.699-1.321,52.091-5.949,61.696-10.794l-0.377-3.136
		c-12.351,5.595-44.24,9.36-61.3,10.328"/>
	<path style="opacity:0.2;fill:#12100B;" d="M20.469,15.643c-1.759,2.604-1.402,10.196-1.045,12.683
		c0.353,2.455,0.881,6.079,2.318,6.599c1.438,0.52,3.709,1.306,4.863,0.236c1.285-1.191,0.556-0.861,0.665-3.328
		C27.379,29.367,20.469,15.643,20.469,15.643z"/>
	<path style="opacity:0.2;fill:#12100B;" d="M5.833,15.908c34.224-0.92,61.888-9.278,59.969-9.879
		C63.729,5.38,29.792,4.506,5.807,5.344"/>
	<g style="opacity:0.1;">
		<g>
			<path style="fill:#12100B;" d="M72.216,60.433C62.078,49.705,58.827,34.885,57.584,26.917c5.288-1.468,8.915-2.713,9.569-4.167
				c0.921-2.047,0.336-3.769-0.213-2.972c-2.815,4.089-37.601,10.057-61.106,10.675l-0.085,3.214
				c18.511-0.683,36.452-3.042,48.164-5.797c4.024,30.725,15.782,35.476,18.609,36.754C72.994,64.838,72.735,60.982,72.216,60.433z"
				/>
		</g>
	</g>
</g>
<g>
	<path style="fill:none;stroke:#000000;stroke-miterlimit:10;" d="M5.834,30.453c30.688-1.06,59.21-7.274,61.319-10.959
		c0.367-0.634-0.002-4.432,0-7.197c0.008-2.763,0.387-5.916,0-6.158C65.214,4.923,38.027,3.973,5.834,4.845"/>
	<path style="fill:none;stroke:#000000;stroke-miterlimit:10;" d="M5.854,16.157c20.679-0.964,41.834-3.77,61.3-10.018"/>
	<path style="fill:none;stroke:#000000;stroke-miterlimit:10;" d="M73.197,75.342c-1.068-18.714-2.629-37.396-6.044-55.848"/>
	<path style="fill:none;stroke:#000000;stroke-miterlimit:10;" d="M53.444,24.649c1.301,8.365,3.806,34.852,19.077,39.975"/>
	<path style="fill:#FFFFFF;" d="M26.201,32.129c-1.581,0.142-4.465,0.558-4.492-0.007c-0.022-0.562-0.939-15.954-0.867-16.479
		c0.077-0.523,3.822-1.204,4.071-0.5C25.162,15.847,26.201,32.129,26.201,32.129z"/>
	<path style="fill:none;stroke:#000000;stroke-miterlimit:10;" d="M20.466,15.198c0.209-0.462,3.853-0.541,4.31-0.377
		c0.456,0.162,1.829,13.279,1.829,17.25c0,0.939-4.521,0.871-4.521,0.262C22.083,30.146,20.165,15.864,20.466,15.198z"/>
	<path style="fill:none;stroke:#000000;stroke-miterlimit:10;" d="M5.861,11.621c15.356-0.611,31.12-1.208,46.488-1.415"/>
	<path style="fill:none;stroke:#000000;stroke-miterlimit:10;" d="M50.581,25.281c1.301,8.365,2.888,35.889,22.183,42.938"/>
</g>
<rect style="fill:none;" width="80" height="80"/>
<g>
</g>
<g>
</g>
<g>
</g>
<g>
</g>
<g>
</g>
<g>
</g>
<g>
</g>
<g>
</g>
<g>
</g>
<g>
</g>
<g>
</g>
<g>
</g>
<g>
</g>
<g>
</g>
<g>
</g>
</svg>
