<?xml version="1.0" encoding="iso-8859-1"?>
<!-- Generator: Adobe Illustrator 16.0.4, SVG Export Plug-In . SVG Version: 6.00 Build 0)  -->
<!DOCTYPE svg PUBLIC "-//W3C//DTD SVG 1.1//EN" "http://www.w3.org/Graphics/SVG/1.1/DTD/svg11.dtd">
<svg version="1.1" id="Layer_1" xmlns="http://www.w3.org/2000/svg" xmlns:xlink="http://www.w3.org/1999/xlink" x="0px" y="0px"
	 width="80px" height="80px" viewBox="0 0 80 80" style="enable-background:new 0 0 80 80;" xml:space="preserve">
<rect style="fill:none;" width="80" height="80"/>
<path style="opacity:0.35;" d="M76.716,41.616c0.048,0.025,0.097,0.047,0.143,0.073c-0.062-0.039-0.129-0.084-0.192-0.125
	c-0.138-0.144-0.309-0.256-0.512-0.331c-6.219-4.024-19.908-12.792-19.908-12.792s-0.85-0.7-2.243-1.31
	c-0.96-0.812-3.86-3.135-8.508-5.733c-5.779-3.234-12.021-6.928-12.021-6.928L3.187,29.48c0,0,3.237,3.695,7.86,6.467
	c4.391,2.631,10.446,9.216,12.432,11.851c0.107,0.231,0.263,0.402,0.375,0.505c0.155,0.194,0.319,0.337,0.489,0.435L45.033,67.7
	c0,0,0.618,0.271,3.315-1.423c9.363-5.461,25.508-19.399,27.588-21.709C77.135,43.239,77.206,42.194,76.716,41.616z"/>
<path style="fill:#FFFFFF;stroke:#000000;stroke-width:0.6239;stroke-miterlimit:10;" d="M3.051,27.294c0,0,3.237,3.695,7.86,6.467
	s11.098,9.93,12.716,12.24c1.618,2.309,4.393-1.616,4.393-1.616l16.415-13.857l9.79-5.273c0,0-3.085-2.811-8.865-6.043
	c-5.779-3.233-12.022-6.928-12.022-6.928"/>
<line style="fill:none;stroke:#939598;stroke-width:0.6239;stroke-miterlimit:10;" x1="34.263" y1="30.989" x2="17.848" y2="19.904"/>
<line style="fill:none;stroke:#939598;stroke-width:0.6239;stroke-miterlimit:10;" x1="40.042" y1="27.294" x2="24.321" y2="16.209"/>
<line style="fill:none;stroke:#939598;stroke-width:0.6239;stroke-miterlimit:10;" x1="45.822" y1="26.14" x2="37.268" y2="19.673"/>
<linearGradient id="SVGID_1_" gradientUnits="userSpaceOnUse" x1="42.7402" y1="52.1094" x2="76.8662" y2="52.1094">
	<stop  offset="0" style="stop-color:#D5D7D8"/>
	<stop  offset="0.1822" style="stop-color:#FFFFFF"/>
	<stop  offset="0.8283" style="stop-color:#EFF0F0"/>
	<stop  offset="1" style="stop-color:#C2C2C2"/>
</linearGradient>
<path style="fill:url(#SVGID_1_);stroke:#000000;stroke-width:0.6239;stroke-miterlimit:10;" d="M44.897,65.515
	c0,0,0.616,0.27,3.313-1.423c9.365-5.462,25.51-19.399,27.59-21.709c2.081-2.31,0.771-3.772-1.001-3.387
	c-1.388-0.308-2.775-0.308-2.775-0.308l-9.71,3.771l-5.549,1.155l-2.851,3.926L42.74,59.472
	C42.74,59.472,43.663,64.476,44.897,65.515z"/>
<path style="fill:none;stroke:#939598;stroke-width:0.6239;stroke-miterlimit:10;" d="M45.052,63.167c0,0,2.62-1.231,6.319-3.771
	s13.179-9.854,16.03-12.239c2.851-2.387,8.399-6.76,7.398-8.16c-0.771-1.078-1.928-1.001-1.928-1.001"/>
<path style="fill:#FFFFFF;stroke:#000000;stroke-width:0.6239;stroke-miterlimit:10;" d="M23.859,46.231l21.039,19.283
	c0,0-1.041-1.038,1.04-3.926c2.08-2.887,7.615-9.329,12.256-13.385c2.756-2.897,0.345-4.629,0.345-4.629L40.621,27.872
	c0,0-13.062,7.043-17.225,16.513C22.818,45.539,23.859,46.231,23.859,46.231z"/>
<g>
	<defs>
		<path id="SVGID_2_" d="M24.259,46.198l19.338,17.786l8.138-10.997l5.17-5.833l2.776-3.729l-6.894-0.957l-6.701-4.494
			c0,0-6.605-6.312-8.807-6.121c-2.202,0.191-8.33,6.885-8.33,6.885S24.259,45.433,24.259,46.198z"/>
	</defs>
	<clipPath id="SVGID_3_">
		<use xlink:href="#SVGID_2_"  style="overflow:visible;"/>
	</clipPath>
	<g style="clip-path:url(#SVGID_3_);">
		<path style="fill:none;stroke:#939598;stroke-width:0.6239;stroke-miterlimit:10;" d="M25.323,47.618c0,0,0.155-1.617,2.081-4.619
			c2.927-5.004,10.018-9.854,10.018-9.854"/>
		<path style="fill:none;stroke:#939598;stroke-width:0.6239;stroke-miterlimit:10;" d="M42.509,63.476c0,0-0.309-1.309,1.618-4.08
			c2.929-4.157,7.167-8.776,10.943-11.701c1.001-0.77,1.233-1.463,1.078-2.386c-0.153-0.924-0.384-1.925-0.384-1.925"/>
	</g>
</g>
<path style="fill:#FFFFFF;stroke:#000000;stroke-width:0.6239;stroke-miterlimit:10;" d="M34.031,31.144l16.53,11.97
	c0,0,3.354,2.409,6.907,2.338c3.553-0.073,5.578-1.185,6.617-1.762c1.041-0.576,8.938-6.381,12.637-4.187
	C70.903,35.732,56.11,26.255,56.11,26.255s-2.659-2.194-6.281-2.194C46.208,24.062,40.621,26.563,34.031,31.144z"/>
<g>
	<defs>
		<polygon id="SVGID_4_" points="74.425,38.356 54.225,25.255 51.544,24.777 40.822,29.08 37.375,31.471 41.778,35.2 51.353,41.989 
			56.766,43.614 62.362,43.042 68.298,39.599 		"/>
	</defs>
	<clipPath id="SVGID_5_">
		<use xlink:href="#SVGID_4_"  style="overflow:visible;"/>
	</clipPath>
	<path style="clip-path:url(#SVGID_5_);fill:none;stroke:#939598;stroke-width:0.6239;stroke-miterlimit:10;" d="M55.687,25.986
		c0,0-2.851-1-6.088,0.154c-3.925,1.4-10.943,5.85-10.943,5.85l13.41,9.469c0,0,2.349,1.622,4.822,1.819
		c2.829,0.073,4.733-0.973,5.966-1.819c1.233-0.848,7.477-5.081,11.252-3.695"/>
</g>
<path style="fill:none;stroke:#000000;stroke-width:0.6239;stroke-miterlimit:10;" d="M53.172,32.063
	c0.092,0.166,0.07,0.354-0.051,0.423l-3.662,2.041c-0.12,0.068-0.293-0.012-0.387-0.178l0,0c-0.092-0.166-0.069-0.355,0.052-0.423
	l3.66-2.041C52.905,31.817,53.079,31.897,53.172,32.063L53.172,32.063z"/>
<g>
	
		<ellipse style="fill:#FFFFFF;stroke:#000000;stroke-width:0.6239;stroke-miterlimit:10;" cx="49.521" cy="34.685" rx="2.505" ry="1.578"/>
	
		<ellipse style="fill:#FFFFFF;stroke:#000000;stroke-width:0.6239;stroke-miterlimit:10;" cx="49.521" cy="34.3" rx="2.505" ry="1.578"/>
	
		<ellipse style="fill:#FFFFFF;stroke:#000000;stroke-width:0.6239;stroke-miterlimit:10;" cx="49.521" cy="33.916" rx="2.505" ry="1.578"/>
	
		<ellipse style="fill:none;stroke:#000000;stroke-width:0.6239;stroke-miterlimit:10;" cx="49.522" cy="33.876" rx="1.387" ry="0.73"/>
</g>
<g>
</g>
<g>
</g>
<g>
</g>
<g>
</g>
<g>
</g>
<g>
</g>
<g>
</g>
<g>
</g>
<g>
</g>
<g>
</g>
<g>
</g>
<g>
</g>
<g>
</g>
<g>
</g>
<g>
</g>
</svg>
