<?xml version="1.0" encoding="iso-8859-1"?>
<!-- Generator: Adobe Illustrator 16.0.4, SVG Export Plug-In . SVG Version: 6.00 Build 0)  -->
<!DOCTYPE svg PUBLIC "-//W3C//DTD SVG 1.1//EN" "http://www.w3.org/Graphics/SVG/1.1/DTD/svg11.dtd">
<svg version="1.1" id="Layer_1" xmlns="http://www.w3.org/2000/svg" xmlns:xlink="http://www.w3.org/1999/xlink" x="0px" y="0px"
	 width="80.075px" height="80.075px" viewBox="0 0 80.075 80.075" style="enable-background:new 0 0 80.075 80.075;"
	 xml:space="preserve">
<g>
	<rect x="20.781" y="13.283" style="opacity:0.35;" width="34.988" height="57.509"/>
	<rect x="23.781" y="11.283" style="fill:#FFFFFF;" width="34.988" height="57.509"/>
	<rect style="fill:none;" width="80.075" height="80.075"/>
	<line style="fill:none;stroke:#000000;stroke-width:0.624;stroke-miterlimit:10;" x1="58.77" y1="11.283" x2="58.77" y2="68.792"/>
	
		<line style="fill:none;stroke:#000000;stroke-width:0.624;stroke-miterlimit:10;" x1="23.781" y1="11.283" x2="23.781" y2="68.792"/>
</g>
<rect x="0.038" y="0.038" style="fill:none;" width="80" height="80"/>
<g>
</g>
<g>
</g>
<g>
</g>
<g>
</g>
<g>
</g>
<g>
</g>
<g>
</g>
<g>
</g>
<g>
</g>
<g>
</g>
<g>
</g>
<g>
</g>
<g>
</g>
<g>
</g>
<g>
</g>
</svg>
